-------------------------------------------------------------------------------
Test set: com.nostratech.project.ProjectApplicationTests
-------------------------------------------------------------------------------
Tests run: 1, Failures: 0, Errors: 0, Skipped: 0, Time elapsed: 28.166 sec - in com.nostratech.project.ProjectApplicationTests
